ISE 599 hw2
…
sum_acre_burn

## # A tibble: 37 x 2
##    YEAR_    count
##    <int>    <dbl>
##  1  1980  562457 
##  2  1981  824805.
##  3  1982  261296 
##  4  1983  893999 
##  5  1984 1064861 
##  6  1985 1937114.
##  7  1986 1101747 
##  8  1987 1679488.
##  9  1988 4392164.
## 10  1989  663591.
## #  with 27 more rows
…
# Yes, the average wilfire size differ by federal organization.

Question8

################
# Question8
df6 = subset(df, select=c(STARTDATED,YEAR_))
date_list = as.Date(df6$STARTDATED, format = "%m/%d/%y %H:%M")
df6$date_list = yday(date_list)
df7 = df6 %>% group_by(YEAR_) %>% summarise(earliest=min(date_list, na.rm=T),
                                    latest=max(date_list,na.rm=T))
df7

## # A tibble: 37 x 3
##    YEAR_ earliest latest
##    <int>    <dbl>  <dbl>
##  1  1980      102    333
##  2  1981      162    294
##  3  1982      120    296
##  4  1983      129    299
##  5  1984       25    298
##  6  1985       61    298
##  7  1986       74    310
##  8  1987       41    291
##  9  1988       61    354
## 10  1989       69    302
## #  with 27 more rows
…
